{
  "dbPath" : "mongodb://muharizals:<secret>@127.0.0.1:27017/trashrescue",
  "port": 8001,
  "superSecret" : "BismilahPALancar",
  "email" : {
    "from": "Trash Rescue",
    "user": "tumpistudio@gmail.com",
    "pass": "<secret>"
  },
  "telegram" :{
    "uid": "350834765:AAGEmmI3Chd_1GWnfI2zOW6t221kFecPZkk"
  },
  "tokenExpiresIn":"1d",
  "timeZone":"Asia/Jakarta",
  "intervalSensor":35,
  "maxDistance":10,
  "YDistanceProto":10,
  "XDistanceProto":20,
  "YDistanceAsli":60,
  "XDistanceAsli":120,

  "YDistance":10,
  "XDistance":20,

  "nexmo_key":"9e89cc9d",
  "nexmo_secret":"b0553f5a2d4a469c"


}

